{
  "extends": [
    "tslint:recommended",
    "tslint-react",
    "tslint-config-prettier"
  ],
  "rulesDirectory": [
    "tslint-plugin-prettier"
  ],
  "rules": {
    "prettier": true,
    "interface-name": false,
    "member-access": false,
    "object-literal-sort-keys": false,
    "ordered-imports": [
      true,
      {   "grouped-imports": true,
          "module-source-path": "full",
          "import-sources-order": "lowercase-last",
          "named-imports-order": "lowercase-first"
      }
    ],
    "no-shadowed-variable": false
  }
}
